30 3160 5954 5831 2820 9997 4506 2854 7590 7759 5454 5679 1666 8019 2863 8232 1111 245 5447 834 7961 3466 165 7530 932 5017 7923 8928 6390 900 7010
28 2822 2921 3042 810 7698 6092 5829 4391 2920 760 5822 3254 7651 5329 1490 6026 7172 8519 6760 9944 7821 3572 9022 4905 566 574 8539 5779
30 7136 295 6258 4529 1093 8410 7541 4874 2552 7816 1214 331 387 8278 9010 4011 318 6403 2663 1252 9105 8570 1200 9479 735 8955 2514 1540 3504 2507
25 3117 7833 7552 3598 9079 7575 555 6215 5687 3484 5405 6780 9414 8329 3576 6487 3569 104 6089 6679 6324 31 7246 2380 7533
31 835 6885 6888 8797 6117 676 2018 3420 8723 5603 6434 9750 5905 8255 2845 981 3418 8702 3162 4911 3428 1343 1381 9652 3848 4571 8935 1486 3289 7319 9163
35 8450 1143 5483 3524 9139 6481 784 4302 4734 5168 7812 7062 5413 1158 1168 4127 9497 8661 5817 5191 9312 9560 5755 9426 3594 463 4725 2733 2180 5607 6926 699 6490 2786 7577
29 2603 1785 493 3899 6910 1217 513 4472 789 619 1516 5533 1321 4749 7725 3677 1832 52 5799 5362 9938 366 298 3219 1254 2627 501 4793 3334
27 2139 7245 1590 2304 9612 8584 7359 7670 7950 6145 7612 8109 9668 3073 7622 4470 5980 6381 1157 6391 6636 5571 7411 1543 3207 9452 7774
32 9670 6613 2649 9130 9190 7185 5424 8263 7105 6999 911 8509 895 5646 1173 8158 7181 6120 7632 3973 5893 3509 3424 7644 6818 1762 8060 2031 966 9802 7049 519
33 1959 2635 2098 8710 8166 2640 779 8697 1681 2101 6112 9451 3166 9375 2153 6025 6176 1885 9729 7932 8480 9998 2871 1455 4242 7073 6273 7807 9041 8830 6442 836 2436
37 6933 5260 333 4114 227 6890 9685 3462 3844 4156 3755 5368 8050 6057 4931 323 1849 8294 4906 5451 2534 6502 5842 3886 9717 5419 5733 763 6645 2764 3990 8838 4287 9774 5481 9607 9941
26 6261 4172 3911 8906 9708 2774 2179 5434 3508 5411 1530 6282 633 8133 3253 9801 7685 7266 6158 4000 3483 6981 3493 7804 8696 4361
27 2734 5634 4503 6030 1175 7728 8968 22 530 4500 59 4667 2577 6915 9800 1063 9893 1216 6514 1703 4342 8243 2731 9900 7729 2431 9914
34 6599 2446 2772 4766 5771 5209 1139 9621 8714 5671 4550 8627 5763 7503 3955 4696 7623 6448 5956 303 5957 8199 4441 8098 4102 8014 6911 3369 1798 65 5374 6722 7123 9724
29 3060 1711 350 3620 919 1300 1414 4350 6944 8783 1693 4857 5501 7766 5488 568 5627 1265 9316 1426 3052 4709 9684 8344 1586 6076 892 6008 2661
30 2234 2191 2715 3950 7323 4784 1264 6322 3667 2868 4545 1081 1526 1908 116 6352 8334 8341 3102 912 1624 5264 5932 808 5764 77 5950 3106 6843 5211
31 2922 9832 7418 2795 896 422 4730 6221 1064 6630 6033 4019 7949 782 8864 6398 1783 2432 9419 2929 6555 5663 1617 8010 8716 6858 5549 4841 8771 362 6148
33 8033 8854 7096 9868 1437 8026 9120 4248 3703 964 3984 2281 5045 4435 778 4835 6809 844 2015 5394 2299 7003 772 3788 6126 6455 5085 1287 843 1323 1851 8898 6441
28 8103 3425 6402 8445 4304 4313 6395 3745 8528 9634 6069 4782 3795 4090 5727 8707 3248 7624 8208 6297 2222 9225 8197 2572 2911 3305 8583 1212
26 6428 2440 5213 7982 7351 5182 8966 6304 743 2513 7525 9300 8140 5648 1950 2910 7964 4073 3223 3200 828 374 8672 2008 2249 6017
30 45 9861 9257 8740 8073 9669 5868 6816 9078 4736 8602 161 9092 8332 2982 494 1537 8156 1649 2750 1722 728 8408 5776 2104 2498 4699 6498 6061 7756
30 2368 306 8841 3762 678 4639 6446 2289 6690 2986 2913 8899 6811 5122 4080 2697 923 2726 4668 3140 7145 6579 6602 7228 1995 3111 5812 9113 24 2850
31 9475 7080 747 4560 3118 2375 6971 8466 9593 5169 8616 5162 9844 3646 7307 2979 4843 583 1656 9518 4711 9048 8719 4463 5232 5593 8585 2386 9860 8009 7527
30 5266 4189 5247 8829 2873 8564 2794 6218 1797 4990 2397 2825 2463 3585 1353 7126 2387 8498 8773 4865 1578 6682 9396 6568 6477 1497 8818 3237 2523 8631
34 6440 3516 6729 3385 2305 273 6313 1042 365 7981 4483 790 8253 2656 1280 2114 866 7018 6380 4970 1632 1732 1291 829 1561 6081 4485 1500 7376 2261 5870 7839 5473 7917
31 3039 1179 6812 4751 8745 2914 931 6379 662 3887 1692 1861 6354 5869 3393 7044 5622 1848 7635 4879 1159 4007 6194 1501 3521 4319 5819 6305 5551 7907 2659
28 6198 2600 5031 1210 3411 5714 150 9491 5935 3850 4591 3174 2682 5994 8475 9617 222 7218 5672 5078 668 9205 2694 8520 8994 7738 6303 8402
28 1434 6781 2836 5129 7890 1390 3731 3573 5176 5407 5659 2028 8889 2878 5782 4633 66 1073 5641 8863 7274 8359 7389 3154 2398 2211 7214 5029
26 156 8725 1807 5134 7992 3275 9485 5218 7317 2207 8013 1460 5063 8137 5752 9681 6530 211 9749 4508 2529 8104 7440 5882 8317 8180
27 1134 4935 2152 4996 1442 8281 5916 9415 409 9067 2647 2408 2080 7702 6453 9596 8023 6678 6949 2361 767 9061 5765 4741 5275 5736 1185
29 5876 3660 9820 1531 4067 2144 8418 2409 6274 7680 452 4515 9250 305 4756 183 3574 2839 3822 4016 7420 6342 2612 7520 3354 6266 8298 1367 233
28 1566 4904 3312 9606 7295 2343 2057 5863 5556 8441 8904 4647 2780 7792 7265 6743 4839 3512 8171 100 3738 9259 9789 9074 2866 6052 4512 9982
32 2758 7643 8431 2399 7516 5968 9097 682 939 6615 5301 4856 6138 644 6178 3303 1137 9400 3204 9405 370 967 1478 6771 6040 4337 6184 7697 4418 1864 1635 5107
26 5959 9200 7528 8933 7880 1194 2558 886 7753 3982 4092 225 539 1866 514 8804 2827 8612 7198 4013 632 717 8660 7726 9388 1773
27 9151 3249 7458 4476 4858 4356 4370 5749 9983 2686 6892 6895 2237 4676 6565 2231 3960 9641 7826 1026 1208 542 9514 9353 2516 4635 4300
31 5604 9351 68 2860 309 393 2762 6738 1326 3086 9917 9575 1163 4658 2977 2893 733 9046 4787 9846 1101 7085 8508 2669 3447 9201 4517 6972 5918 340 3530
28 4467 3883 8934 9559 6995 6966 6826 1368 5084 4489 1493 9228 3730 1146 3963 4378 5643 302 755 9726 9644 8030 8836 2990 940 3148 2985 1397
27 9738 691 8543 5156 1608 9678 1996 4251 7755 5975 4163 7355 7443 6143 9207 2549 4814 9070 6685 1940 6144 1018 2065 9208 2904 9650 419
28 2150 9117 8850 3560 5436 2908 2499 431 2097 4460 2547 8878 2465 1418 1482 920 1567 7546 9471 3263 8064 3538 5558 1874 652 8272 6235 3876
27 7318 5455 42 8327 53 6167 4953 2061 3481 9281 6893 6849 9466 1829 3034 5642 6649 6863 3337 867 1072 7967 692 205 9866 5033 1298
27 7678 3153 8282 1123 7957 795 8991 1302 290 4657 2184 9279 2739 6998 8843 9465 4763 5338 5414 9086 9903 1281 7396 7413 4895 5317 8879
29 389 4052 2384 3442 7667 6551 5177 1411 3158 1423 546 8691 7663 8007 2251 5479 1581 9162 4846 3093 4920 1232 1481 8965 5795 9971 5915 8819 7187
31 6130 7851 7496 8513 8613 5102 1547 5742 550 1104 7531 9187 2811 7586 4902 6940 2087 6875 9237 3809 959 7562 7501 2597 3752 6745 4615 4026 8011 3366 4037
28 8980 8172 4238 9699 9385 7442 3757 2218 147 5784 6186 4158 21 4519 5694 5108 4779 5540 193 7737 5123 7963 4932 316 6631 6577 556 224
29 2995 9145 7576 6864 82 2339 2058 6105 8442 5759 1120 7330 1402 7740 7058 7013 2419 7143 9985 4649 6346 423 3374 1479 6784 1559 6656 9799 4347
37 9058 9053 6229 5740 667 2535 8162 1715 1923 7412 2541 5878 6472 7291 5096 5000 8538 8020 9501 2165 6544 9716 7564 5248 1710 8827 1619 4626 797 2437 9524 9805 8582 3957 9330 7655 2149
31 187 7883 8781 8053 9322 171 5478 9975 2601 8477 8857 8821 1102 1636 9066 5252 2690 3945 8705 3282 2035 7269 4283 7977 5342 1800 6532 9045 9383 4540 9700
33 3190 6056 1468 3258 1614 4408 4183 9892 5274 4521 2624 2183 7082 3563 3241 4925 5833 2869 8972 4496 507 4752 4731 6886 5922 9536 3098 3938 7788 4548 2481 265 1363
25 3183 102 5966 3410 9590 9571 1777 7078 1219 833 1182 1935 3488 3543 2743 3137 7196 8758 3125 2702 9656 5221 2709 4437 3059
27 2717 2586 9747 3264 1465 1659 704 3205 3715 7765 6171 7939 123 4128 2125 2219 7803 1013 7103 3550 3789 160 1731 8247 5633 3645 9192
31 7849 4065 9460 8971 9408 5940 1257 4393 106 3780 6553 6331 3565 9871 9458 4743 1892 8095 8310 6127 935 7250 1989 9348 8084 439 7764 1503 2155 8385 2423
25 9822 2223 9336 8969 26 6150 571 9549 8791 9954 2522 8808 4168 9964 4603 604 8497 5463 5626 346 9101 3510 8002 5491 4516
29 6340 5371 8678 7694 2228 4123 4116 6312 313 4882 5894 3622 345 6684 751 9390 5546 5790 7081 4035 2598 3217 8354 1514 1669 640 2054 2807 7348
29 6430 4967 3316 6073 7637 3079 8423 2947 7275 6648 8390 3942 7587 6365 6621 1973 2270 4786 774 3999 8656 7749 6116 6420 7666 7125 5398 1522 2367
32 3448 2849 2265 4535 2841 1794 1854 8251 6675 1207 3986 3515 1919 3502 2560 3674 3301 9507 1511 6953 2754 5778 5807 2773 5589 1374 4584 1266 1601 1327 7722 4964
28 2870 5588 6151 8049 3671 4828 4004 5100 4281 1889 2044 4986 6345 9453 7909 2945 3276 4972 4876 7971 4744 7665 732 2093 240 6397 6320 8932
31 2584 9141 5503 7173 7060 8072 1441 5303 3170 2318 5074 4792 9720 7213 9434 1458 7558 3319 2026 6604 7535 7293 6855 6702 4721 8736 3906 4339 764 7315 1627
32 5254 9371 2769 291 6657 745 9851 9270 4929 3863 5289 8115 7973 8348 2326 6991 1 4609 3222 2602 4987 8822 6107 4849 1529 9523 3930 9023 3092 950 2901 6906
21 6975 5632 9899 7621 2158 4055 8603 5121 8222 805 9588 4106 9266 4670 9638 8451 7734 2311 7801 4353 126
28 6096 7320 3592 2205 5400 6444 4082 4096 6817 87 8330 3127 8384 6426 8355 1713 4740 5393 2580 6023 9137 1814 6986 6797 2537 7843 2781 7775
27 4891 9392 5846 8919 9150 9462 7768 1258 8377 7869 569 8536 9389 8926 8688 9040 2128 6967 5111 7263 8739 6077 3239 3760 8270 3857 711
26 9191 8598 7609 5545 4715 1267 1293 91 9338 5355 4679 9815 7863 8558 157 9666 5026 8319 6050 8459 562 5961 2160 6761 9164 2925
29 3636 3187 9581 4115 130 684 1412 2950 4117 3784 2955 8284 9906 2790 5427 5426 2187 6396 9928 776 329 136 2002 7659 5582 390 8548 4789 3386
30 3353 7277 4507 6790 3907 7176 8500 1725 3304 9690 972 9857 9280 2342 1469 7500 5236 2473 9429 7550 3206 506 5319 1857 5359 9080 1105 7772 4502 7796
25 5482 9038 3201 6374 6123 3558 9393 9274 8655 5382 741 8665 7388 2369 8422 2658 9103 5986 4853 5179 8280 8287 5016 4890 2668
25 4611 3511 9735 4192 703 1243 2021 7815 1292 8842 2546 3740 4143 9083 8704 622 5120 8343 7791 7090 2616 6737 3529 9481 5987
27 820 1808 3044 8540 7790 9989 2917 2175 5838 8944 332 4401 5441 9081 3786 6968 7570 8303 9102 2443 5719 9881 8708 1361 8070 6626 1099
27 719 6570 6796 9492 3951 837 7016 1593 6309 3465 8642 2260 430 1103 7700 7206 2070 6900 8181 3270 4173 1633 4688 6377 3918 1793 9895
32 7138 681 7395 5886 9785 6351 6242 6822 8970 499 2470 597 6344 8760 1688 3407 2998 1029 2060 2508 618 8444 8930 9493 2865 5599 3527 4746 6901 448 4422 8387
30 3016 9106 2417 4219 3367 6464 3528 2728 468 8150 7243 9855 2818 7025 1170 4368 700 7750 3378 4781 7254 1475 5155 3586 2063 1815 8987 4592 1697 2518
28 6507 3123 8778 5713 9467 4724 9093 2078 1915 9249 237 58 169 297 324 4604 6558 4142 3053 9686 7595 2819 4479 2400 1313 2809 4184 6491
27 5832 1408 3903 663 768 6128 7592 5012 1256 1867 8931 9303 7242 585 8168 6977 6877 4475 4837 864 201 4537 2197 6251 2942 9580 6135
29 8141 8044 2000 1100 3582 721 9489 2450 6436 8211 7709 8159 609 3568 4471 5971 8975 6905 2271 8608 2742 217 7461 1337 1812 7731 3349 7903 1911
29 2038 8544 6778 5387 6563 6753 5166 3541 6419 4889 6233 5297 3290 2033 947 3971 9174 7040 9530 6349 8382 293 6489 2926 749 3406 1607 119 2565
28 327 4182 1407 5313 35 3513 1310 472 2931 4028 9651 4081 1721 1719 6539 5131 5139 6047 118 1274 8951 7139 2991 9285 4840 6755 5204 3642
31 701 9925 1330 6382 2212 8368 7347 1657 9798 7268 8507 9043 1664 2287 3047 1495 3419 646 6736 454 6937 2210 2109 6887 2927 731 2357 7817 3580 2504 7264
35 1826 9413 436 3987 906 3050 9974 9537 3625 3215 5183 1872 9760 239 6063 8279 4148 1047 4054 4085 248 1087 4491 4233 6723 6316 6569 5110 3779 3601 3468 3872 4345 4712 7820
29 7674 3216 3746 979 5228 8256 9084 8025 7407 8047 9372 6368 9287 5504 8630 3461 4434 6302 471 1903 3666 1844 5866 351 730 6161 8353 6639 1177
27 5835 5383 7922 1152 6262 6452 9356 8646 3430 4684 8350 1352 8990 9021 4572 7547 1065 2081 757 6241 1297 814 1115 1022 9094 5621 4771
30 586 8078 3491 4951 7358 4436 6677 9937 184 5700 9376 6820 9839 4844 2548 3834 3094 1853 3129 6079 8313 7373 9663 1019 5009 1518 8559 9586 7593 7887
31 3440 8858 1196 416 6620 2767 4227 6125 5318 5683 3997 3871 3647 5843 3402 2020 2833 4448 6439 8217 6476 7285 9026 8075 4416 2559 8554 2505 451 2075 3633
26 7782 9168 1021 4279 3518 3716 2391 1174 8316 111 3277 292 7809 1171 8764 2708 2593 4453 3029 3070 894 415 1071 6564 6065 1648
32 3155 3590 8592 4458 3702 7974 6634 7278 4630 9854 2009 1329 7785 7429 6486 2576 713 8031 418 9553 6527 7283 4464 5494 4816 3691 8388 7799 3045 4561 788 3472
28 3873 1048 854 2430 3266 2166 7679 9055 8328 1810 4831 7610 5951 3434 6310 3003 1094 9570 8757 9701 3365 7303 1811 1576 9698 1295 7424 8670
31 9601 1030 5815 4817 5188 9599 3651 1149 7483 9220 4785 9979 9739 9824 8149 4477 815 8175 9999 444 268 6232 6285 6700 7913 8474 3081 1333 4380 4998 8816
25 1579 4523 9180 7235 4259 5345 1049 6912 7117 219 4533 6187 5230 4845 2568 3552 8259 3089 3307 8853 3838 1834 860 4962 2388
27 4119 654 5127 404 5308 4983 8417 1160 8005 2689 1082 718 8861 9736 3211 6119 2972 6695 9401 1569 6608 6066 4959 3859 6503 3024 3021
26 3831 7995 9884 5542 7201 8532 3212 2280 1988 7560 1294 9290 4727 226 8379 3017 3617 2438 8428 9977 9069 8803 7435 5960 9431 3818
29 3766 9159 4754 3501 4650 7084 6718 9803 9272 1888 9425 8182 1301 6263 4130 6948 8124 1736 1231 6043 6831 9369 2545 5665 2095 621 8895 6830 6413
23 1813 1999 8946 6857 2573 2051 5945 6658 7489 5639 4577 2426 322 7712 9177 4365 7155 1845 3397 9661 3351 2329 7885
23 3709 1817 8003 7367 5724 5360 5439 8476 5249 6951 1467 8871 7795 613 440 4618 5094 4245 9539 8940 79 5054 9212
26 3922 577 7397 6459 6681 7430 6859 4454 7835 7345 5689 5265 7012 9325 2309 591 8452 7057 9298 2621 1782 5649 7618 9542 2189 7153
27 8786 1641 9361 9632 4186 7180 73 185 6538 4110 2802 301 9218 2404 3441 8908 3884 6195 6525 9146 114 6053 6533 1385 3816 5432 3080
33 6042 7653 8315 9743 4802 2145 3331 6746 3114 4692 4385 1897 230 6357 1647 223 6829 9411 7385 5056 7273 5773 8271 4439 4536 5019 8088 2285 6907 4600 7174 518 2994
29 8424 1573 7638 1051 1562 5433 9725 266 4833 5124 3360 600 8560 6545 4059 2425 1720 2700 6589 2605 6592 9063 9508 2638 6713 9476 5231 6955 7540
32 3875 5014 1717 9014 5908 7648 9963 4627 9477 9350 1735 5278 1431 7071 7108 832 623 8276 5464 2131 5444 7507 2958 988 9374 8777 486 2834 3168 8487 6142 3399
30 526 1753 5237 2755 4718 2642 4273 3182 926 7046 4440 2276 2973 4813 3747 6362 5199 5357 7832 8496 5722 520 8252 4369 509 5734 8589 7978 8114 2288
27 8220 4768 8977 6445 5251 1430 7239 6744 8581 9327 7466 2760 7068 3356 4215 6418 5662 7630 9624 7628 2045 7959 9926 8485 4490 2467 5823
36 9049 4078 6791 8733 879 3346 134 9310 5235 9203 8917 5647 4443 1085 6182 9959 7853 1876 2341 4522 3805 2321 705 1748 9269 8531 8202 6289 6408 8117 6203 3589 7371 4556 819 4644
28 3387 5195 7279 7488 1804 7110 7598 7142 194 5412 1303 6137 6716 6072 6644 3799 6466 2227 6110 7325 7669 7933 1311 2248 2478 2385 4237 4585
31 175 3877 8118 9804 4966 3150 5520 6844 9407 9184 4134 6160 5397 2100 1069 7459 1774 1054 5924 2226 5573 1480 6064 9711 5715 1790 2618 5787 1184 824 1778
26 6423 9282 8566 4195 5726 4942 6099 5396 1121 6697 5811 781 32 4637 8732 4240 2447 8900 3475 5623 267 7498 121 1288 5021 6091
33 8995 9888 1956 1746 915 5153 6748 9754 1276 3537 4948 1904 5760 4885 5059 4873 3839 5839 8713 4051 8041 279 5929 7451 5873 4999 7453 2721 4138 9710 5747 3970 6133
29 207 8546 874 8699 304 6566 4221 5315 8588 7135 1023 394 9233 3477 48 6166 7673 4706 6314 1476 1388 5088 10 2454 1509 882 8744 8194 7690
24 2851 7584 6214 8027 7721 941 4089 6276 893 7122 584 6024 522 234 9564 2216 631 7599 8676 6840 1112 8770 5507 1946
32 78 2209 7031 5865 2048 1855 2801 6359 4640 5090 9173 933 1436 8915 7114 7757 2798 7353 2319 9676 7333 4269 7204 8449 5101 2275 2441 2829 3956 1551 6480 4916
27 9435 9440 1140 7864 1124 5896 1340 8274 4396 8325 9970 1435 9158 8426 8942 6861 2111 595 7168 1234 1982 2905 6431 7156 5526 6157 7234
28 1574 934 4701 2554 817 2906 9640 4076 9648 980 1132 8912 2286 7387 7009 7344 6338 7676 3031 5602 7780 2628 7452 9602 6 4798 1629 7854
30 7426 9155 4808 2916 605 5990 1994 3348 1427 1307 3813 9976 8573 6719 7363 8614 3088 6307 6894 1534 137 4265 2405 3936 3274 9767 6404 825 4364 124
31 9189 3423 558 7695 5553 3172 2756 8063 1380 236 2136 4003 6329 8794 8296 8938 6908 861 5804 9810 4125 2660 1803 1513 897 6583 3842 5559 6332 1001 969
26 1141 4466 6950 2864 6003 9702 7986 1016 1604 5296 3487 8369 9116 6993 6253 5093 3470 4244 3293 9016 4939 6923 7490 1181 8768 5208
34 2805 152 656 3679 1275 4622 8266 5925 7866 2613 5510 3313 1395 5395 6206 7150 6208 5746 9659 2639 9337 5923 7940 7567 8706 6293 3649 4518 6094 7926 1928 2267 3531 2103
28 5919 1572 8366 49 9382 9115 1133 1917 8486 7419 3825 7958 4100 2390 7290 6450 6451 4113 6353 6124 5060 8056 3000 3358 6838 641 2670 5361
29 6392 4974 3350 3764 8108 5125 800 7045 9689 527 3686 914 367 6323 8847 744 8537 3372 2277 9245 5992 8962 1786 806 7002 6524 4714 212 1637
31 4960 9988 7871 2169 6421 8594 3297 9986 6562 4017 5592 7983 567 428 4277 8490 7378 8226 716 3007 7446 9319 6109 7512 8648 3112 6356 1263 937 9100 8096
24 8097 9328 6046 873 5796 5596 6854 8687 3398 1837 5480 7076 7059 799 2151 2043 1341 4886 5743 5452 6751 7100 3422 1766
26 1769 9111 2442 4249 3680 2154 6036 9461 7703 5597 6590 2948 1483 557 6433 3004 4861 179 9125 7434 8902 8045 9582 3008 6164 6090
30 660 726 6970 6936 1278 8910 6866 8262 5904 3280 8213 1723 5137 6728 877 1873 8780 2475 8221 8336 8817 6880 4729 5180 7602 4811 3931 9349 2936 4331
32 6808 4141 3562 5898 6928 2526 4104 6686 4745 8828 9554 3167 991 1524 5332 337 3605 5731 8333 9653 9730 8692 6529 7255 5995 7897 1449 9099 2487 7270 496 9604
24 4071 5046 1014 1822 2221 173 9149 9548 997 1847 5075 96 649 4842 5458 4220 3626 312 2812 4196 8893 9916 7608 5723
28 6424 602 5069 702 2570 9129 6556 9121 9182 4938 6708 4374 5352 6429 2645 1114 5187 8321 6827 2515 8212 3739 3469 4267 4222 6447 4526 1665
29 5057 962 314 9942 910 4717 9636 4933 504 1238 9619 739 203 1825 359 3981 2171 7088 7310 8461 9567 7433 7372 3526 1372 3948 4820 5953 4678
30 1587 8099 5370 4769 3126 2236 489 3669 4809 8000 6268 1228 4892 3124 2121 9455 9712 1571 7829 1623 608 3736 4041 2199 88 5985 7107 3474 4832 6898
30 8849 5777 4765 7611 1745 3283 9391 8958 6752 685 1549 4945 5998 1126 5909 3344 112 4162 6417 8367 2596 2665 3395 317 2778 7617 8658 6496 4875 1508
27 13 6638 9304 5855 2279 6341 9936 2322 3195 9990 3018 7484 9012 2720 4379 1128 9367 3723 9297 6712 7762 2449 315 4366 5813 624 447
29 6197 1965 5324 6294 5511 5826 4355 7561 8812 9949 7450 2120 7509 7099 4421 2445 5614 6494 2344 7646 3935 8521 4036 5337 7332 6867 951 8351 5666
27 4764 7937 7421 40 8130 8765 5022 7441 7748 1477 8067 2699 403 189 4551 3920 3495 2484 7357 6193 7819 9972 485 889 1369 9782 8629
28 9714 8551 3681 4896 1250 9856 2433 9240 4799 4562 2892 5474 6989 9051 5761 4157 7681 7626 2460 7098 6004 4154 3676 7480 6619 2907 3188 6614
29 9321 5465 3701 429 2736 9980 163 456 9395 8680 5023 5793 54 5106 2877 1952 922 628 1392 1456 9551 8161 5676 9603 8174 4228 8409 6542 2451
27 570 1938 2365 9042 4151 9428 1055 8454 9939 4264 521 7990 3879 9996 8529 1351 7023 4778 401 5753 7445 5184 4664 2703 2848 5789 6625
26 7633 3265 7581 5423 4250 9241 3854 8264 4229 4201 545 7554 9135 3377 361 3895 7733 4493 8429 8703 579 4176 3352 6932 4707 2528
34 7662 1386 7014 5566 5460 9258 4495 93 0 3770 4641 5070 5550 8769 7104 5132 6692 6540 2206 3043 7189 7079 2662 6071 7892 4468 9020 8533 7518 5032 5372 7066 7718 7492
28 9488 746 9104 8120 5574 706 7691 3243 1671 4665 2943 199 5890 3685 4617 559 3567 6962 3596 7428 5931 3564 7017 2796 426 9615 6038 2623
28 4753 9594 9202 1499 1600 5144 2519 2673 9172 6300 7390 5350 8231 8639 7112 2032 938 2108 5331 483 725 7687 9924 1474 5569 4683 2532 3554
32 7914 4322 5608 2785 6595 3302 1325 375 6280 2687 7993 4363 7472 9771 868 3392 2610 4402 213 2245 7027 3732 5630 6333 3338 1162 1108 8779 1947 480 3030 6055
21 8346 5895 9790 1770 1354 4040 3364 2116 3464 6321 6594 4750 4780 488 9840 2079 6478 9143 1967 6633 7805
29 7148 6669 108 4327 2768 6622 3300 261 1011 1724 3095 8436 984 3389 3213 955 7808 6689 4399 2898 6034 1755 770 8393 2393 6136 6159 561 6663
26 3363 4852 9215 8017 7481 653 3949 8201 435 5887 8638 2457 4241 5304 1744 580 4230 1488 4596 6058 2127 8729 3727 9863 6012 5178
29 7427 5062 7828 9756 1398 6255 1913 2429 541 4185 1118 532 822 4456 1544 2817 1416 9630 830 8300 9532 6108 5981 5728 2691 9320 1015 9152 8887
35 4804 138 6765 1631 7719 9235 2247 2274 1370 4289 3105 2050 8976 1003 3944 1968 1504 6078 6946 7823 7127 5061 5858 6401 9373 1107 5381 8811 3214 1227 6068 637 1690 6173 1199
27 9543 2182 170 1429 6794 7538 1012 36 974 9908 4101 9655 5847 3923 5800 8787 1977 5554 4863 1438 4029 1328 3559 5294 5285 2016 9478
25 1577 9194 8885 3735 4386 4309 380 51 2928 6213 6591 7033 4549 8425 6759 5655 9911 9271 3750 3688 4381 9927 3345 6650 4915
29 8057 9340 6245 1148 7191 4587 8293 1131 4969 4044 5403 7811 8734 4316 5367 5015 5067 2034 9981 9085 4928 5421 1605 2190 8576 4608 9423 2007 2084
23 1109 3782 9891 9540 4950 7675 2176 8122 6183 2092 7860 831 5827 4191 6725 6691 5762 5305 818 5548 7852 6947 9958
28 2378 9872 5197 8134 9811 6869 1076 9242 7605 9781 4559 3637 6454 9179 2967 4335 7437 1523 1075 6196 9945 349 4733 4367 9705 4680 4956 7326
27 2672 445 5955 6983 6504 7467 383 3678 620 7336 6098 3321 2903 2220 533 5095 4109 3571 1910 1394 6641 9402 4155 4884 5907 9748 9768
27 5500 6879 7636 2614 9721 4621 5053 2320 7334 9677 7846 8094 2056 4371 9707 4280 4614 7210 1743 3787 4427 6848 7019 8846 7223 6598 7652
29 8709 1066 780 5224 7361 7927 1083 9363 1709 3314 3798 6665 7588 4351 1535 386 5154 1941 3880 3255 7797 7548 2102 372 4042 127 6762 953 2406
25 4077 2766 8324 7416 5448 2992 9059 5862 9260 2590 3721 7696 9091 7069 6387 72 8340 3980 4336 3661 6181 4619 8305 5635 7260
30 7324 6603 7699 627 6292 7086 4395 4452 7660 1007 4732 3819 4045 2204 2837 8759 9140 5810 4389 6020 5656 2471 3294 1900 3450 4271 8061 8187 1533 75
29 4398 2452 6200 5934 8438 1560 5 8488 7316 7038 257 384 8604 249 6375 3525 5081 3184 7573 1296 4024 1912 8308 1393 396 7029 8743 7806 6202
26 666 4473 7793 554 4169 9797 6509 515 4795 5587 4174 9482 3415 7298 2882 5651 7095 7469 1153 442 8516 467 7631 2952 4539 9784
27 3815 8400 5112 9175 8074 1241 4278 3326 2679 2919 4527 7305 1215 8807 5270 6106 9671 4742 9693 3793 6290 6260 859 3583 9293 1727 4275
28 4760 5798 7613 61 2963 2085 3412 9745 7392 5911 2629 5818 3131 5219 5379 999 1781 6965 4372 7083 6987 29 9680 4320 7152 4274 8092 8307
24 3236 4632 2003 5229 8754 3644 1306 2595 9368 636 2235 9552 9595 4438 6939 9611 3600 6852 714 2749 8916 2291 4014 9154
28 2993 3256 2069 1520 1178 2295 8320 7299 6874 8541 7462 7000 1934 1406 270 1391 1195 538 2029 9783 9171 5089 8633 7601 427 4762 7178 3517
29 6845 377 9131 1809 294 971 1784 8292 6559 1028 7876 4687 8824 6646 1451 9547 6384 2695 1156 2988 148 5888 5358 3542 6325 8024 1473 9827 9418
30 1472 7822 1704 1964 9273 1220 8884 3049 4975 5223 5105 5369 4588 2989 1166 1044 9261 3063 4332 1840 4946 2886 5194 1077 5710 3022 7998 8810 8037 6537
28 3145 601 5334 3921 6363 2966 8766 2782 7513 720 1676 7473 3273 8989 4919 4598 4120 802 9209 6400 9511 3792 2356 296 6335 3157 6074 5418
30 993 4661 2636 9591 2604 2971 3164 6007 3439 4589 2960 3336 6574 8347 3456 6060 5330 1068 3599 2292 2259 9005 2458 4022 2575 3257 8302 7968 8132 7502
32 671 6897 6168 2253 3391 2677 9494 2745 4444 3262 7906 3817 9278 3700 475 2631 4164 3432 1338 8331 6270 155 5341 4790 5091 2115 9934 2268 8290 2349 3634 6511
33 4616 8407 5077 1863 5181 1229 2536 6361 2142 5900 4958 4262 2052 8145 1489 3807 3828 3888 6220 6714 1780 8997 4405 4330 3597 9503 7052 9667 5725 7677 5609 2059 5738
27 395 4803 1417 2747 7375 1151 9044 4864 2909 7352 6813 6018 7043 9060 7556 2564 8420 7684 6789 3965 1432 5518 1546 9124 9633 6271 2894
22 6190 7011 9128 3707 7408 1865 8322 1290 4266 6763 7682 2278 9525 4899 6131 8922 7287 399 8146 4590 3540 4625
25 2823 8595 9561 5171 473 8389 3654 6523 5429 6224 4565 1972 8338 1122 4492 6249 1850 8059 3627 4783 235 3979 2215 8268 5240
29 5552 9742 5524 1924 2599 1575 9622 2853 9324 5142 9973 1708 7873 3246 1667 4776 8087 3615 1201 5620 3823 2089 5217 8690 7121 2448 3840 1954 5470
23 2652 8121 7894 3122 5157 1485 1020 1092 5420 710 6291 7859 5718 3343 5806 9709 1190 4663 6080 8522 1705 9555 6405
30 3233 8724 4349 5537 2858 2013 8006 8897 2738 3427 5071 360 872 310 3390 3446 4276 8610 3641 8414 1584 3852 8419 3916 6067 3673 9335 1975 3663 1651
32 3902 9284 5756 5528 6664 7232 6278 7526 689 7284 8907 7877 5874 8761 3896 8599 8155 801 3690 853 458 2317 2162 8985 2177 3208 7810 4872 3161 1739 1993 592
35 9211 8090 4049 4773 2037 7519 7769 740 1245 4672 8154 8974 8391 6862 1920 6601 6836 7233 7238 7184 4129 335 1640 2974 1384 9610 5286 2294 3998 7705 6358 2716 2968 5851 2217
34 1466 5354 8143 8261 7980 6727 74 363 392 9529 7935 3584 339 6006 5695 2256 6653 2411 3728 7067 3874 4121 2732 2491 262 2779 3734 4698 4257 5489 7474 4685 6121 6627
26 6891 5160 1712 6463 8052 2352 1689 243 6188 6225 2705 9464 5720 6075 2224 1117 5385 4359 1116 3497 8467 821 8112 5386 7938 4087
27 5262 8644 7929 8625 8717 7723 3881 2298 80 6515 6252 510 8446 3778 178 9024 3939 9295 6443 4225 8102 2953 1119 2828 9829 9410 7471
29 9858 3611 6250 7707 9095 7327 2797 1253 9499 9883 3835 3191 3846 2606 7072 3271 1927 1225 3261 8138 4606 7391 2619 1978 7386 3985 9358 6179 960
31 7735 1764 1779 432 1961 5323 7379 7916 6084 8617 8413 9694 3028 2981 9283 1887 9345 5103 549 3357 7454 1827 9364 4993 9221 2214 5805 5780 8374 9296 2296
27 9890 8267 4214 3396 9752 8954 6616 7240 1317 3228 8855 1879 9381 1221 6850 3113 8269 5047 9574 4971 4651 2883 9947 8986 2493 6969 2783
26 7901 8453 3533 256 2479 9907 5901 679 3587 7097 7536 6191 5834 1262 1838 6432 9262 5750 7627 8071 3655 4646 547 2556 9969 9577
28 7256 1187 8394 9984 2186 2664 5912 8022 177 7664 8153 6585 9833 3695 5581 5737 6768 8973 3749 9176 7306 7524 4666 8081 6776 6842 3769 4131
30 4801 8561 4469 2813 5472 8833 5079 1299 2310 5401 9126 5983 8813 3926 8254 7778 56 6336 2941 8674 5891 921 7465 7987 2884 4850 5702 1396 4940 6588
27 7760 9764 2693 9378 1462 6779 2609 6393 2039 2799 5440 9728 5281 5854 6414 7898 354 7262 4429 5684 2588 9766 8695 4580 2959 8640 2791
31 2711 929 5889 417 8464 1969 6519 2489 8649 5490 7037 5291 1948 6996 1517 903 762 4534 6839 4513 8580 4253 3087 4484 7128 5615 3717 638 769 2915 6806
30 1788 159 3618 9966 1554 9751 5585 4903 8111 7878 4247 5976 7784 5366 8894 7645 2685 5306 3753 3814 904 4305 1273 5271 7311 9108 8555 8244 6673 4605
27 7313 5325 188 5910 2126 5637 4083 5322 3362 9502 2923 5830 4423 6696 1886 8491 8800 3445 8735 5824 8179 9759 3451 6883 9645 3048 9307
30 3968 8504 276 5115 5668 3696 4030 4069 7054 5302 5406 9870 5277 4520 9993 6954 3705 7882 8200 8996 5186 1823 1164 9715 2751 8637 3993 9444 1653 7207
33 8039 4170 3064 4126 675 6902 141 9231 8131 7925 2924 4284 2316 7532 2800 3401 5443 1272 6376 6758 3824 2208 9000 7814 8163 2856 7583 1937 1943 575 8501 5050 8265
36 2414 5147 3937 5113 1192 5349 9268 289 5706 8913 3882 8289 8089 2076 6882 5691 2617 9344 1894 254 3499 1858 414 8233 9432 1987 7686 2476 5316 1869 4593 44 6654 4197 8941 7414
25 8698 4474 8273 2258 8012 6267 848 9889 881 1389 1056 7130 6670 3837 7510 19 2816 4198 9399 6501 4505 9865 616 287 9837
31 724 3384 3534 3306 1024 7579 5860 1674 7840 7693 4263 5293 9818 3507 7308 9672 2872 9409 887 7350 9009 5328 5140 2483 7972 3014 4352 7850 6680 7460 5517
28 8372 1660 8927 2524 4716 232 6676 3604 9289 4079 9842 1548 5347 6701 5114 9513 5422 9473 742 3933 6548 876 7048 2269 2088 368 9697 9204
34 2146 5326 2954 7689 2876 6237 593 408 1487 8572 8553 1603 1193 1545 2835 9664 7340 4601 1091 6721 3801 5775 5001 398 6734 7640 2073 708 3224 8058 3943 4995 7741 9841
31 8404 9933 3932 2293 7773 3267 7915 8718 5163 5802 3925 3670 1405 986 4748 8796 5786 5958 6724 588 8839 7479 6372 8600 1202 2784 3841 4360 8100 341 5486
25 6956 7179 2933 4050 785 1740 8381 8463 1555 6037 2011 3435 8666 7692 6306 884 3329 4686 1357 1318 8433 1237 6311 5161 7194
21 9960 8227 5881 1776 1165 5167 3711 3069 9090 9087 2178 4430 2354 7493 3437 8534 7495 469 4908 7521 7362
28 6330 7205 8586 2195 4252 5857 6295 4432 2646 4153 2887 2859 1962 4602 4146 4555 3885 8563 272 9062 695 7354 9579 3958 8683 1315 5690 3227
30 2163 3482 4824 6410 3238 5883 8634 8478 1730 1096 4822 1557 2389 3199 2761 2759 9232 9323 3408 9779 342 727 6642 6101 2824 2938 7856 9573 4708 6596
26 8579 9054 7329 1505 9909 402 1440 9583 9314 2722 5384 7522 5768 6612 5450 5477 9276 9706 3245 3768 4810 7895 8685 4984 2902 6246
28 8085 3581 1247 4807 1816 7724 1558 5525 4553 3203 2846 8224 3791 67 4226 3650 3013 4299 7783 8091 8127 1997 4705 4927 6360 5859 9188 9741
34 2563 6257 7219 1926 2168 8549 908 7087 4486 6793 5969 9442 4997 9835 7706 9952 2520 4417 8675 2300 3535 9867 508 4991 7634 139 1843 1129 455 9112 6988 8959 6587 1868
34 9696 3075 7946 5595 928 4415 5086 8575 1521 7872 8458 2867 300 8721 4218 4851 2741 3961 8401 5880 9156 6469 9746 8664 3726 5709 7714 2862 677 2345 1270 5365 4188 2107
30 6227 1833 3833 7402 5109 6407 1080 2746 2167 8790 250 7960 8349 841 135 6651 3121 5438 6757 9876 2193 6146 2174 3115 3221 1086 7713 3796 3074 7555
29 6021 8299 8125 9695 7979 8624 2394 8873 9495 2788 3683 4095 8214 7824 798 5417 512 3370 7834 8626 9639 9605 1527 5677 2976 4532 9991 5561 3232
31 5030 2698 8386 1805 1675 5680 9719 5353 6994 3803 8518 3340 4726 6318 642 1960 954 6706 9214 5212 7225 176 7302 9306 9450 105 9517 9001 7261 4897 7341
29 5645 8607 182 5185 7867 7607 5457 5570 8123 5119 1683 4564 3368 8621 8223 611 4693 1906 8119 8291 7398 433 7092 1646 8905 4012 8712 4384 9018
25 7132 1377 3643 7253 3139 3186 4597 1322 2337 8206 9654 6471 5577 1918 645 241 8921 7241 28 8557 2284 4039 1209 8792 845
30 3198 4794 3579 3744 4001 2468 9585 7296 2562 1189 3794 4914 2014 376 210 9196 3672 8210 2379 599 1733 4285 8342 3426 5408 4297 5844 6217 6810 6172
25 9814 2830 8657 687 5116 2401 1750 8001 2538 5192 5661 4376 2657 7844 3897 7248 9487 7732 3296 9379 8510 9277 6828 8225 98
27 4830 1599 8870 3149 2395 4323 9660 1039 5584 4047 76 6192 680 3609 6807 2047 8868 6031 8126 2978 5946 9878 6921 4913 3719 9786 3436
24 5703 4107 7439 1756 4307 9531 8988 9420 6705 3553 1261 2581 4570 4010 6054 6373 3593 3498 1930 3355 4354 7399 3071 5193
30 8184 1492 9522 5751 5128 3763 5333 6283 9777 7406 3741 3185 3130 5781 8611 7312 8148 2462 64 759 1334 5544 1699 6593 7717 6929 9244 8228 4235 4747
32 8502 4922 7120 8950 3898 5610 1998 4487 6385 4497 8844 5080 863 4177 9050 4321 2173 7578 3252 945 1251 5339 6801 7220 2046 1939 2501 8880 3072 3062 4063 3952
30 2091 957 4797 5245 3866 4926 589 9546 6409 9921 6552 1870 8378 8597 6607 4610 3602 7975 3621 8457 5321 8785 1331 7619 9953 6327 8953 145 3285 5644
31 3240 9887 528 4034 3992 6876 9961 2591 5850 5376 9186 358 3506 9247 1618 9365 2428 1598 8587 9509 9929 5087 3689 783 2427 4008 8077 1801 1399 7165 4901
30 5233 34 6493 1053 7259 5693 7910 794 9853 465 7776 3454 2262 1147 6457 4829 9326 5409 2714 7129 4653 6095 3561 8169 4450 8979 5256 5928 5227 4594
26 2648 2381 5492 5516 7845 5351 572 7369 5496 9526 5290 9792 4312 7365 4541 9239 5563 8430 6355 6799 2376 9291 5527 4552 3868 7368
28 750 5673 2517 9366 5917 9052 9123 4144 7286 8178 6764 3532 9919 3134 8963 7276 5519 2466 6104 5841 1591 8856 5143 5735 1570 8032 5678 3808
25 3756 2607 9227 736 338 6618 883 1032 9029 8722 7557 6930 2315 2806 1684 1729 6662 9193 2885 9613 587 9505 4767 4659 6422
23 4759 551 6284 8421 8726 2410 1259 6800 686 858 2675 7919 4855 3067 9674 4924 2676 1078 1183 37 6688 8068 282
23 804 4581 7331 8204 2106 1525 3774 8677 9072 924 4862 2949 985 8984 7825 8405 2655 6774 7508 3328 1211 503 85
26 2156 7382 7015 3333 1700 7865 4642 3821 6097 4504 2643 4511 5135 2527 8667 5150 3714 9519 9181 464 4973 2119 4791 3381 9544 973
25 1204 9246 2874 229 8937 9864 4194 3989 2651 9332 1698 1761 5346 1616 3231 2022 6458 8209 6917 195 1470 1634 8596 4965 6730
26 482 7642 3288 8903 9019 6815 5744 5010 987 4178 1589 2004 1452 7491 7615 650 5977 8 6259 2579 8647 1538 1820 2881 8412 6301
29 7229 7794 1035 1556 2459 3405 8992 5682 8494 4048 4348 110 5036 2040 1933 5974 9 9252 8960 5295 8016 5335 3032 614 6248 2257 4346 1550 9161
23 4574 2 9286 2036 6411 3486 8036 902 8398 4542 4243 1244 4713 9355 6492 8684 9386 5933 3002 5660 6415 6189 9847
27 2996 6982 3640 2252 5658 6005 2775 630 5875 8793 4062 8862 2502 5840 6484 8762 9264 9169 6343 8198 2490 4159 9333 9950 3988 7470 2810
31 3860 7251 2506 2137 2138 8285 5446 4880 2843 5189 2763 4728 8967 7007 3983 8242 1088 5628 6792 3737 7051 7444 4449 4681 3588 5261 9778 3057 283 3006 1289
28 4634 9037 2140 5020 4677 3001 9394 3904 3037 7405 2303 6364 7672 2148 2500 1507 1382 7200 3109 6039 7716 162 3947 25 9025 3120 2879 4978
26 1568 9445 7183 4917 4165 6868 6554 1373 5170 1759 9737 2509 1002 6378 6272 8650 1830 9830 7848 7064 827 7905 1714 321 5681 6835
30 625 8246 9755 3373 3536 3347 117 6535 3908 8623 5309 2314 6129 6873 3175 5104 1536 9077 7585 2723 8662 748 8635 3996 9572 573 7008 2620 8514 7649
27 9446 5801 9248 1670 1983 3867 9627 1203 8577 4446 648 8892 3635 8925 3026 4340 8196 8113 3843 1922 9859 3910 2264 1881 8105 6240 2480
23 9360 1846 8080 4937 2815 5117 1787 3103 7356 3500 9562 8106 4599 1046 4819 6528 9807 9614 9028 9550 978 5276 8964
29 1415 7545 450 6635 5207 6113 952 5949 3318 6389 888 4272 6856 1045 3975 1695 8752 2464 8295 1050 4498 4806 9013 50 8188 1454 4981 5543 2444
34 1752 4501 8653 8890 4009 3733 3332 6299 9565 1167 1839 3912 7304 1986 7188 4132 909 8883 1457 3458 4557 5098 905 6571 1008 6243 7954 4075 856 453 6798 8151 5044 5921
29 4260 816 8177 665 7798 3295 8693 2840 975 6473 4898 6707 907 8371 989 8882 6521 3639 5003 4056 3761 5364 5243 18 9557 2567 378 4643 1596
34 7006 3656 16 9806 6520 2912 6643 956 9675 6015 5601 2122 6449 7989 7247 9256 2348 3463 4955 5688 524 3142 3230 206 5011 7197 4979 754 3459 7604 8981 3421 946 8314
27 2198 2765 6578 3682 1597 7603 238 6205 6978 3156 1694 4021 8826 1223 4815 1240 6775 5616 4563 5437 9032 1958 2706 2306 2895 6576 63
27 1824 8669 3471 5997 9772 1344 3429 5035 3315 4992 3806 1145 95 4424 6726 5541 1502 992 7170 3624 5380 4936 8484 1615 936 9404 9600
28 3827 9688 4088 4091 5675 9459 9956 462 9915 1004 4394 1433 1360 6927 4295 6735 1494 9609 6841 8370 5631 1180 410 8632 7647 2737 2456 7911
32 688 2330 4068 2472 4910 4084 4175 8756 8093 4478 3480 3544 5238 3631 7830 4546 1552 14 263 4406 8866 7133 1043 8312 4772 963 3713 7683 891 9765 9015 8636
33 3832 7566 4568 8415 3383 3278 9520 3033 4282 9437 6584 576 7190 6672 8505 2124 5024 6386 6406 1936 7167 1496 407 1224 7141 2192 2932 8101 8888 5629 7050 6960 7134
30 7047 1595 7969 6516 9147 899 4231 9183 2961 4306 753 4988 4869 6674 564 4382 5848 6749 693 8129 1346 2488 348 9230 9541 5145 9433 6141 3173 6207
30 4980 5535 3630 2940 3268 6211 6244 3489 1620 5055 9500 1564 6773 8035 5716 278 758 4103 2118 9897 6870 129 2503 1005 983 9788 3652 3038 4977 8311
30 862 8568 3772 3005 3009 15 606 9943 3802 7875 3058 6997 4823 92 4723 8051 6180 2485 2327 299 1654 5043 2592 7366 5250 1583 2533 3710 617 697
27 7855 773 5532 4909 9816 610 3520 8700 925 4292 5064 2842 9185 9935 2888 7912 5415 5288 8524 1041 4409 7360 8823 7477 3197 7921 7559
35 94 4494 4060 7569 1410 9836 4286 8663 8865 9456 3619 9533 8249 8309 7847 9812 7928 1371 2900 3010 8142 998 3400 9534 2246 8767 7226 8069 9744 7169 5225 6943 2105 8978 6952
27 3210 502 540 3 7485 164 8911 9267 8245 2935 8659 1459 7701 1413 9119 5174 6288 875 4554 2347 4912 11 9905 8219 5729 3829 7021
27 1387 5467 6623 2350 3954 8277 132 2644 3281 425 2415 8689 4064 2382 6772 5594 5989 5617 8671 6394 4216 8229 9318 2328 6201 8110 5257
28 6557 4662 6935 1758 949 319 200 6412 9793 1747 9118 4761 2283 8867 1161 247 7710 9088 7571 6605 1355 5892 4968 8606 7457 7544 7553 2497
27 474 2418 6925 5416 1282 8620 4465 5568 1799 5611 2944 5820 2372 6111 4700 2110 9480 3967 8361 6070 1110 4362 1718 2510 6041 4461 9918
27 8896 6154 5721 3855 629 1639 3299 3724 6666 6287 1742 143 3132 6175 5982 4704 5816 3077 9357 2875 942 6002 7164 2067 6546 9527 2338
34 3720 280 4057 1860 8872 8046 2359 851 5146 6795 6860 4579 6814 709 1701 3941 6228 3662 7217 490 424 8403 9199 707 6536 9496 1966 7101 6317 4961 47 2585 9882 5707
28 90 1062 3575 7742 8237 8924 5580 4377 1895 6567 1749 6085 8686 2413 6742 7779 842 1625 658 4211 6913 2074 6086 3196 8416 2594 8470 3082
33 4671 2496 5973 7744 9076 2701 5307 8737 8914 437 7580 8593 8215 2539 2066 4180 7035 214 274 8288 8116 9528 8571 8473 7565 1979 2987 3706 8018 4695 8360 7272 3708
31 5837 3104 9992 6475 3099 4710 4887 2301 9753 7468 6711 7131 8189 3889 6147 5565 461 3473 3638 5853 1379 9512 1775 5872 1347 7991 5430 166 2969 4111 3375
31 3209 3452 1067 421 4655 4181 5052 927 9457 7629 3545 7267 5198 6741 958 6204 5884 2792 9626 7582 5788 142 2363 4150 2422 5937 6028 9071 1235 4871 5453
23 2847 5130 8356 7543 3845 3722 9229 5159 4652 83 8455 6010 8015 6100 492 4656 4860 3178 3577 113 3800 9347 4866
32 8961 1365 9732 5612 7177 4628 7800 8235 2832 4388 2055 8832 39 1144 4930 643 5378 3409 4623 5038 1286 3566 2880 7736 8427 8742 8788 8164 3668 4058 5562 8805
31 3704 9740 4989 2005 3612 1025 3443 3019 4015 2674 5312 7745 6914 7423 4612 7118 3096 6134 5531 6958 1757 5469 7182 2553 1685 9253 3015 2712 371 5042 1445
27 1130 9251 5598 4636 2439 2574 8645 9994 525 5856 1349 3431 8437 4985 6044 264 3927 3928 976 1400 9566 4445 6903 7505 20 8574 4171
26 7297 3128 9930 2965 1612 9665 2608 4387 9808 1089 3110 8335 6114 1661 669 4118 1884 3189 5449 2434 6366 3311 3083 1991 7747 8465
28 8545 8364 1285 659 4629 6485 3091 8741 6550 7671 871 8358 5964 4410 4883 6009 8837 812 2684 4023 807 5871 6733 3977 5686 8845 5216 647
30 3076 9568 1835 2555 5066 8257 8365 2707 734 8628 9862 5118 6508 2615 153 9011 1763 4404 9758 6984 5165 6825 9036 6103 2964 634 6222 497 1891 1268
28 9157 8492 4318 5456 4867 9504 8831 4205 2233 7743 8652 3055 7620 9923 1726 6350 8029 355 8086 6019 7902 4255 8535 7616 1428 1738 5991 6051
28 6543 4994 6871 9454 3242 7163 4031 4544 140 1929 5993 5767 3108 3978 2821 2975 8525 154 3966 5141 4462 9819 3547 1446 2789 8774 5007 5392
31 9443 6488 3460 7309 288 220 1821 8042 8258 3035 3548 4425 8038 2225 4488 1057 2740 1403 1450 913 9132 7055 3729 1594 7166 5650 8195 2530 9995 5836 9510
27 1942 7781 9791 3476 8234 6027 8673 2194 8238 5028 1754 9216 5200 3974 7739 5652 9776 1366 4770 7945 4569 948 172 8236 7004 470 9138
29 1359 1186 487 7985 1260 443 8957 1944 1802 1233 8008 5913 5048 7199 8578 803 2113 840 4187 6035 8021 9722 5657 9034 1728 2094 8682 2804 7899
23 3025 9692 2332 1751 1772 9484 167 3905 1304 1852 3608 9309 1142 9757 6223 2492 4826 9901 2366 9377 5536 6974 6632
27 9718 1425 8399 8503 3698 5696 791 2266 5512 204 5311 5699 6976 231 5943 6518 9587 4499 3097 9649 7301 9620 7542 7966 120 9403 3107
24 5388 7539 1976 4777 8651 5506 5425 7727 4375 4583 7953 917 6924 2133 2997 1992 1362 543 8772 251 9030 5698 6088 1921
24 8948 8183 9951 1737 3036 343 771 5861 2373 5442 259 9334 2970 5268 5484 325 5708 3964 9578 8136 5575 2626 8218 6865
28 7186 1312 3260 6699 7482 7572 2313 1602 6606 5404 109 6941 729 6462 379 9427 6512 5495 5920 6118 890 4620 6661 8363 4735 6264 8694 5255
25 1831 8590 4757 2147 7349 4145 3379 9127 1630 7941 777 125 9796 4027 2307 1652 1230 1510 9682 186 6782 9576 1404 3697 6513
32 1512 6668 6347 5653 2042 4455 3623 3455 5210 3783 8609 2531 9762 1532 5547 5279 2370 9160 3061 982 6170 5825 3718 3342 2787 7862 4848 4270 4412 3202 1350 9556
28 2713 1539 9662 3361 7042 4046 6000 4694 7931 1226 2188 3147 3893 7077 1905 2757 4094 6199 3969 5283 5363 8622 5391 8750 1255 1150 2561 4690
27 7639 626 7335 6234 7147 9165 930 2680 9339 5879 7032 5428 7962 4414 5741 5468 2688 9775 723 6139 8747 5996 6783 5471 8891 3826 3555
31 4949 4447 5149 1491 5476 9515 1644 7381 8239 2242 7338 2027 793 4204 1880 916 664 9483 3869 8396 2402 246 1696 1628 3163 2896 7730 6153 9398 578 7886
32 2086 698 446 1421 2323 6703 7065 1098 1622 38 9780 8448 9618 3382 2704 7124 2753 4737 6802 4070 3776 8869 7160 9843 8357 8326 3995 7486 1378 7970 9869 5002
26 9213 330 4217 3953 2569 970 3556 9006 3078 2946 6174 2424 8550 5485 7231 2625 7041 7 7594 3712 9886 4702 103 1916 8240 2719
28 7175 548 598 6016 5522 8176 2748 209 901 413 3286 6693 7838 9311 1401 2540 2951 255 1741 9017 244 151 1953 9004 3909 8062 7641 6479
32 7337 8286 1037 5310 9384 8615 5705 1222 6919 2542 7415 995 5175 1172 3136 5220 9421 5590 4509 5287 3359 478 3244 3394 7827 8789 1682 5864 9912 5215 696 977
29 1925 8128 5583 3324 7449 2353 3292 792 466 7024 400 7942 4223 2852 5073 9299 9852 9469 7813 7879 6247 2641 6370 6560 2667 8165 6881 8216 6804
33 2550 9031 3991 2512 961 9033 8439 7436 6369 2435 4575 670 8511 5701 6388 5152 6624 6851 449 7514 2181 9922 9516 4203 284 3023 9978 1626 4291 5926 5092 7654 531
29 7606 3492 994 6600 850 60 1907 1515 9238 7777 2937 1248 7257 2826 3849 198 7893 6611 3325 4719 6087 657 2159 1859 2072 6339 6833 6029 5513
29 596 4236 2263 7116 5058 9380 3176 2068 5766 4825 5579 7321 9359 9430 9122 5239 4310 1033 7314 9965 2934 4326 2962 4459 2308 9687 5375 2582 7364
31 5097 7511 7574 7787 9584 9236 434 7203 385 6652 8728 6460 7001 5202 6438 4645 7410 8107 3539 8048 3725 1687 9198 2282 3141 9065 9713 8376 7900 7537 5320
27 3632 9727 553 3919 4834 5051 7149 311 2001 8483 373 3603 3310 3449 4343 3692 1828 5899 4595 8825 5576 9167 5515 6506 5877 6647 2611
23 3171 4099 2239 3847 4137 6230 2735 9704 6082 2082 9902 3180 5013 500 8795 7211 7140 4613 1277 7517 9003 3403 9346
25 8730 2335 6754 6348 7870 2331 9317 4941 4720 71 7549 8814 382 8373 1611 5572 3915 5745 765 9449 9623 7868 6011 5196 1875
28 4805 4303 552 7161 4400 9263 7022 996 7111 6872 8562 4179 3317 4288 3657 7888 17 761 9234 9275 6517 7857 7074 6499 41 1106 277 2494
26 3179 2297 5984 4944 5148 1095 7061 9848 1767 5314 3146 8956 6878 8066 2671 9424 4207 756 9521 7920 5172 9849 9170 5586 3279 7534
29 8383 275 1734 3519 7026 6985 3804 3479 3934 4025 2511 9056 4818 6456 7404 855 1453 5242 6739 6788 5625 8748 1031 9342 581 4947 1678 4419 1154
27 8472 9243 457 2396 2358 3272 6750 7036 5578 1034 1914 4072 5730 1613 3754 9896 5927 3976 6468 4528 3165 2566 8192 7119 4877 5685 3570
29 27 5336 1768 8851 3694 8193 4788 3040 6470 8517 356 3743 4582 7237 5027 8139 6045 5697 1284 1528 2240 4210 3438 8043 2844 1010 3159 7908 9770
28 1125 1893 2855 7394 9416 7715 2771 3675 8055 7328 3416 4160 9931 8362 9197 9794 4149 5205 6957 4558 4209 8323 1951 2203 3959 3758 2587 5638
30 1191 5941 2469 5999 9625 590 43 8840 8668 8147 3298 8352 2939 5732 2324 369 9734 5567 3376 5389 2362 944 4859 149 5173 6916 3664 4586 655 202
33 5944 6152 4122 271 6973 5258 9096 9825 1198 9880 252 9254 7761 7039 6582 3629 673 99 7515 5076 6334 1931 5246 9920 3012 4308 8160 5039 5158 517 3308 7965 3870
26 3235 7115 3322 4739 1760 8569 3777 4140 7771 2412 6510 4199 5214 4043 8186 1058 6122 9114 4324 3994 6659 6920 2041 7837 4254 9932
35 4397 9288 2241 6461 6265 4239 9073 2578 3557 9027 6731 4722 4358 8876 7091 1444 7596 5497 1642 1135 6226 9292 2889 7889 2407 8643 1356 3133 9608 857 5402 6573 6371 7947 2681
27 5557 3775 8481 69 1239 8462 7227 5821 8040 1269 6531 1000 1320 7300 603 8601 3616 6786 6617 1565 347 7600 8567 7106 2544 5897 9558
25 6770 2012 4006 4480 9967 397 1342 9658 6256 353 3490 1585 1314 6904 4232 5040 4654 2112 9341 9472 441 181 6667 7934 9255
29 2351 4166 544 7976 9874 9329 674 6296 1309 8755 8512 9763 7656 4800 2229 6853 9294 6803 2861 2831 5025 7224 1841 1316 9894 5591 6942 8392 8799
27 8339 4481 3659 5534 4200 9955 2238 9107 8004 1680 258 8248 3759 5962 6156 9098 7994 307 1335 4755 3613 2360 6022 6059 5712 4256 8753
29 3181 4796 328 8170 479 4607 1236 2232 1883 4691 391 4290 4136 9057 8345 1188 7102 8999 180 3433 3900 269 9657 5234 1580 344 6169 6435 6014
31 6980 8440 336 6889 4573 3836 6500 7944 1932 107 8460 1871 6847 8260 8552 2017 9217 8135 3193 2899 8230 7506 9206 5792 880 6769 218 1305 4682 5280 2980
33 23 9447 7494 8565 4442 3851 2334 1420 4900 7401 4921 5018 865 5664 3220 7831 7171 7499 5493 7292 481 6505 6549 4234 885 4624 9637 253 5948 6269 8715 2254 3767
25 4246 5529 3914 4 2930 8798 1610 1971 2725 3020 6115 7005 3514 7763 2364 4893 3085 9875 495 5902 1974 651 6637 2814 7063
25 3169 4433 7752 8820 208 5435 8506 9885 3648 878 5770 3269 1706 131 9387 9647 7943 7956 8456 1375 9679 9474 9968 869 8395
29 9589 3503 477 6767 7952 4530 9439 6162 9308 1980 5906 8801 9007 2495 1650 3251 2730 5072 7221 5340 5431 1901 5004 6281 8802 787 9148 1655 4775
27 2090 5613 281 8530 1448 221 2918 7891 4457 1792 3494 6367 3011 8886 1409 8028 6326 6938 97 7034 3861 7754 3614 3457 2143 5930 694
27 286 8406 9913 7475 9592 4697 2622 7464 33 6747 5523 4888 5509 560 3453 9769 3152 2312 3046 4086 5636 4206 3862 9631 8542 2776 7568
28 405 3505 9646 1422 215 6580 3090 3341 6715 6185 7802 7282 7056 57 635 4033 3820 4738 1471 260 3591 9948 4407 6660 9828 5970 9838 7456
28 3247 846 1842 2777 5669 4957 8936 1283 4514 690 8076 5748 3865 3330 5963 8939 2724 4161 6048 536 6083 2650 6934 8998 8852 2383 9642 7322
28 9498 3972 3339 3781 7650 4093 8746 7988 5739 9153 7955 5514 7400 5828 8185 5808 3287 7999 8304 9946 4333 7137 7818 898 1686 3946 7997 2630
29 9136 3051 7244 8471 2838 3192 8993 6740 6824 7409 715 4212 133 918 5373 86 4838 6628 3790 46 6805 9305 3699 3478 9962 4224 5618 2134 582
33 3929 2803 4390 2890 3027 9352 6275 9302 7393 1679 1668 8191 2589 2010 6846 7758 9047 7438 1246 3549 3485 2172 786 242 4296 3135 5538 8306 4020 3467 9731 6561 722
28 3496 2583 9506 7020 7383 4567 3917 6522 5343 9436 5068 3742 4383 9370 7346 3853 4261 3751 9313 9331 1017 4907 6013 5466 9987 7861 8619 5273
24 3628 6683 6155 5244 7158 2770 4315 4325 4638 4774 4147 1621 9877 2333 7208 672 1984 3413 3578 809 1981 4954 2099 7162
29 9538 1271 3765 6819 5263 5151 7249 2346 6990 420 5508 9110 7195 529 412 1249 4934 5692 535 7786 6834 5814 4403 5300 2250 4631 2571 4827 2634
35 1038 8468 8432 5136 5938 8083 5226 4005 5619 9406 4190 3144 7209 6586 2325 9628 6298 1553 1662 4213 1383 2727 4648 285 6140 1324 1155 6254 1878 7746 5809 7951 2123 6149 4821
30 352 6319 7448 8297 460 2752 9629 813 7028 2064 5133 5530 9703 4002 8435 6399 639 8190 4538 3327 9144 7874 1090 1463 8923 6909 3687 2170 1136 9343
23 3665 8207 6231 2201 5499 174 8469 8318 5803 1308 6698 1169 8495 2420 9195 364 5190 5560 3940 491 2213 537 3116
30 8835 6992 6093 6655 8875 3811 8701 5348 3151 6163 4334 8815 1796 3771 9008 4258 5498 4812 8947 5203 7658 3066 7711 8782 9904 7789 4268 6732 1990 8909
23 7704 6720 9441 498 5461 3610 2096 7597 9545 9222 4669 7236 3068 1955 122 9265 2377 2340 5521 2718 9535 3138 9109
33 2202 9787 2244 1059 8751 1985 1588 1138 9795 3100 943 1643 8144 7370 1097 9845 1498 2666 4373 8860 9683 3371 438 7504 1949 712 6239 5624 7342 5459 7478 2999 4881
29 6001 5939 8447 5794 6177 5783 320 2161 2243 9412 9821 8591 7258 8489 4167 101 1789 1336 7447 4451 5099 7113 4426 7281 6308 5849 4923 8167 4576
27 6671 7984 9635 1890 6922 5126 6710 3335 6212 1836 3234 2062 5852 8775 1771 6483 2006 7836 4202 5034 9226 7657 8763 1279 12 3404 3444
24 4066 7343 7380 5298 5867 1707 1609 8499 1899 4952 115 4943 8982 7425 7403 9210 9691 2336 4038 7289 7094 3218 870 5988
29 7487 6497 8523 1040 9940 1795 62 8834 8848 4193 8877 2355 4074 2185 1606 5640 1084 3658 1506 2392 607 4531 5344 9463 3522 5845 7294 2956 5885
24 7030 7216 9075 1205 3259 9831 1009 4758 4413 615 4032 2984 7271 2290 6777 5267 2023 9834 8738 2302 737 8731 5717 6216
31 9826 6597 3119 8654 191 7384 7109 2135 1592 6979 9733 8493 594 3194 4547 3812 3054 7075 6629 775 7591 1702 7497 3864 6209 1877 796 4135 3913 5269 3595
30 839 9470 5377 7230 4018 4314 6427 8920 5253 565 9089 7377 2897 2416 7884 5606 5356 2653 7881 7476 4894 4982 8881 7339 9813 3607 3101 9873 4329 6575
31 3551 7720 6425 6032 2049 2710 5138 6286 2983 5757 5704 6210 8337 4294 4420 7431 4112 6884 5272 4301 2486 146 6465 7551 4061 8749 3653 6821 1484 7996 7417
29 811 6785 1818 6961 1197 5797 7896 3830 4341 3546 4344 7157 1963 9673 4836 326 1970 8397 6383 3523 8157 7252 6541 5445 4108 4411 990 9723 6279
26 8152 4392 5952 5475 5206 4311 4053 6049 1898 5502 3229 4293 55 6945 1856 2077 5505 4482 7563 8809 9301 1716 516 4674 8784 9354
29 5241 4338 1909 2633 3380 2024 4703 190 1519 5222 7614 6609 5327 9809 5600 6337 7146 3250 4328 8720 7070 1332 8275 8556 6534 7280 8776 1345 6787
31 5008 1896 2793 5903 144 1862 968 3291 7668 3225 9315 484 2403 7661 2030 2255 4689 9448 9823 4868 6964 6219 8301 8173 9879 6899 192 2371 5410 3748 8618
26 476 612 9957 9417 7529 5462 3417 308 5390 1242 4124 2474 8482 5972 5978 1376 7093 1006 2455 459 197 1957 6717 9422 8945 5284
27 1691 4660 8949 4152 81 9223 9133 3388 7374 8943 1206 4428 2632 1819 7212 1673 6315 3414 6896 1945 9468 4510 8241 9134 8918 8479 7215
25 766 1113 6482 7625 158 2129 5772 8874 1074 3606 6581 2019 965 7159 4847 1213 2272 847 8380 6694 2729 6495 3962 5774 5065
27 9850 6062 3693 2482 9039 9397 8681 216 2637 2744 4524 8641 2132 70 3797 334 1176 7288 7948 1439 381 9597 1902 4105 6823 2957 7688
25 7222 8952 9224 3177 9773 8711 3858 7202 3785 6918 6238 9490 4578 9616 5758 388 2200 2453 2543 6467 1061 7858 9563 1027 5674
26 6687 534 5564 6416 6102 3323 9761 2053 5670 1882 6236 6277 84 5259 8901 5487 2164 3773 5754 8065 752 6709 1765 9064 3901 7936
26 4878 5049 9166 5942 6756 738 1542 7751 6328 2071 8859 9068 2551 1052 4139 2692 5399 5605 7904 2421 826 7523 5711 6704 852 9643
32 7708 5967 6610 89 2141 5654 8375 4673 6437 5769 1218 3892 5292 838 1461 1070 8283 2130 8034 3056 4357 1582 9142 6165 1663 1658 5785 1443 661 7192 2273 511
25 523 1348 6640 5965 7151 1677 9898 2083 2230 9035 5282 2683 1358 3684 5037 3891 5164 2196 9486 9082 7930 9438 1791 2678 3143
25 7918 5914 4870 8547 5005 7842 4298 4566 3320 5791 1319 8605 9002 5947 7924 1645 4133 4208 8411 8929 8515 6832 7089 7422 3810
30 8205 6931 4543 8434 6959 128 9817 357 8250 8727 1127 9178 9910 2891 683 5006 9598 4525 505 1563 4854 4675 823 3084 7154 196 3041 1464 1672 8443
27 3856 1364 1060 5555 6474 4976 8679 2525 7455 7767 2808 7432 228 3065 4918 5299 3890 8054 5979 7193 3309 2374 2025 7463 5667 1638 4963
26 8983 5041 2557 1036 9219 7144 6766 8526 1541 6547 6572 4431 2857 3284 4098 4317 6837 6963 6526 2696 3924 1447 8527 5936 1079 2157
34 1424 3878 1339 563 5082 5201 9362 2477 2654 168 1419 5083 7589 406 3894 30 7053 5539 8082 2521 1806 6132 8806 2461 8079 2117 9569 8203 7770 3226 7841 4097 849 411
